[
	{
		"fields": {
			"name":"room1",
			"timestamp": "2015-04-13T17:52:38.404000Z"
		},
		"model":"api.room",
		"pk": 1
	},
	{
		"fields": {
			"name":"room2",
			"timestamp": "2015-04-13T17:52:38.404000Z"
		},
		"model":"api.room",
		"pk": 2
	},
	{
		"fields": {
			"name":"room3",
			"timestamp": "2015-04-13T17:52:38.404000Z"
		},
		"model":"api.room",
		"pk": 3
	}
]
